%YAML 1.1
%TAG !u! tag:unity3d.com,2011:
--- !u!1045 &1
EditorBuildSettings:
  m_ObjectHideFlags: 0
  serializedVersion: 2
  m_Scenes:
  - enabled: 1
    path: Assets/_Developer/Scene/Main.unity
    guid: 4a4f260c015b54cf3b8860af0a9be796
  m_configObjects: {}
